[
    {
        "category": "TO DO/ISSUES",
        "priority": 500,
        "evaluation": 1.5,
        "description": "Facebook demo can't scroll well.",
        "image": "./images/t_facebook.png"
    },
    {
        "category": "TO DO/ISSUES",
        "priority": 100,
        "evaluation": 0.5,
        "description": "Format is not correct in new version."
    },
    {
        "category": "TO DO/ISSUES",
        "priority": 200,
        "evaluation": 0.25,
        "description": "There is no response when clicking the group header.",
        "image": "./images/t_groupHeader.png"
    },
    {
        "category": "TO DO/ISSUES",
        "priority": 400,
        "evaluation": 2,
        "description": "Horizontal layout engine layout is incorrect when ending editing.",
        "image": "./images/t_horizontal.png"
    },
    {
        "category": "TO DO/ISSUES",
        "priority": 400,
        "evaluation": 3,
        "description": "SearchBox can't work in IE or FireFox.",
        "image": "./images/t_searchbox.png"
    },
    {
        "category": "PROCESSING",
        "priority": 400,
        "evaluation": 2.5,
        "description": "The font style is different. We need to make it unified.",
        "image": "./images/t_font.jpg"
    },
    {
        "category": "PROCESSING",
        "priority": 300,
        "evaluation": 1,
        "description": "The tool panel don't support mousewheel event."
    },
    {
        "category": "PROCESSING",
        "priority": 300,
        "evaluation": 3,
        "description": "There is no drag drop indicator when dragging the column header in the Horizontal Layout Engine."
    },
    {
        "category": "PROCESSING",
        "priority": 300,
        "evaluation": 1,
        "description": "The button style is different.",
        "image": "./images/t_buttons.jpg"
    },
    {
        "category": "PROCESSING",
        "priority": 400,
        "evaluation": 3,
        "description": "The items in the drop down list in SearchBox should be customizable.",
        "image": "./images/t_dropdown.png"

    },
    {
        "category": "DONE",
        "priority": 200,
        "evaluation": 3,
        "description": "The chat row template demo can't load data normally.",
        "image":"./images/t_chat.png"
    },
    {
        "category": "DONE",
        "priority": 500,
        "evaluation": 3,
        "description": "If the group header is selected, the whole group items should be selected."
    },
    {
        "category": "DONE",
        "priority": 500,
        "evaluation": 3,
        "description": "If the tree header is selected, its children should not be selected.",
        "image": "./images/t_select.png"
    },
    {
        "category": "DONE",
        "priority": 200,
        "evaluation": 3,
        "description": "The layout goes wrong when resizing with row template."
    },
    {
        "category": "DONE",
        "priority": 200,
        "evaluation": 3,
        "description": "The inline edit can't commit values when clicking another row."
    },
    {
        "category": "STORIES",
        "priority": 400,
        "evaluation": 1,
        "description": "Group footer should not be selected."
    },
    {
        "category": "STORIES",
        "priority": 400,
        "evaluation": 2,
        "description": "Group header and footer should support template."
    },
    {
        "category": "STORIES",
        "priority": 500,
        "evaluation": 3,
        "description": "Hierarchical footer should not be selected."
    },
    {
        "category": "STORIES",
        "priority": 400,
        "evaluation": 2,
        "description": "Select an item in SearchBox, and then press delete, the item should be deleted."
    },
    {
        "category": "STORIES",
        "priority": 400,
        "evaluation": 1,
        "description": "The sort icon should be placed in front of the column header caption."
    }
]
